<svg width="18" height="18" viewBox="0 0 18 18" fill="none" xmlns="http://www.w3.org/2000/svg">
<path d="M12.2 1V4.2M5.80005 1V4.2M1.80005 7.4H16.2M3.40005 2.6H14.6C15.4837 2.6 16.2 3.31634 16.2 4.2V15.4C16.2 16.2837 15.4837 17 14.6 17H3.40005C2.51639 17 1.80005 16.2837 1.80005 15.4V4.2C1.80005 3.31634 2.51639 2.6 3.40005 2.6Z" stroke="#092542" stroke-width="2" stroke-linecap="round" stroke-linejoin="round"/>
</svg>
