<svg width="16" height="16" viewBox="0 0 16 16" fill="none" xmlns="http://www.w3.org/2000/svg">
<path d="M5.66667 15H2.55556C2.143 15 1.74733 14.8361 1.45561 14.5444C1.16389 14.2527 1 13.857 1 13.4444V2.55556C1 2.143 1.16389 1.74733 1.45561 1.45561C1.74733 1.16389 2.143 1 2.55556 1H5.66667" stroke="#092542" stroke-width="2" stroke-linecap="round" stroke-linejoin="round"/>
<path d="M11.1111 11.8889L15 7.99997L11.1111 4.11108" stroke="#092542" stroke-width="2" stroke-linecap="round" stroke-linejoin="round"/>
<path d="M15.0001 8H5.66675" stroke="#092542" stroke-width="2" stroke-linecap="round" stroke-linejoin="round"/>
</svg>
